<svg width="20" height="20" viewBox="0 0 20 20" fill="none" xmlns="http://www.w3.org/2000/svg">
<path d="M17.0749 2.92881C15.6767 1.53192 13.8957 0.580914 11.9571 0.196012C10.0185 -0.188891 8.00935 0.00958874 6.18355 0.766361C4.35774 1.52313 2.79729 2.80422 1.69944 4.44769C0.601586 6.09116 0.015625 8.02322 0.015625 9.99964C0.015625 11.9761 0.601586 13.9081 1.69944 15.5516C2.79729 17.1951 4.35774 18.4762 6.18355 19.2329C8.00935 19.9897 10.0185 20.1882 11.9571 19.8033C13.8957 19.4184 15.6767 18.4674 17.0749 17.0705C18.9472 15.1936 19.9987 12.6507 19.9987 9.99964C19.9987 7.34854 18.9472 4.80567 17.0749 2.92881ZM13.9257 12.7321C14.068 12.8906 14.1442 13.0975 14.1387 13.3104C14.1332 13.5233 14.0464 13.726 13.8961 13.8769C13.7458 14.0278 13.5435 14.1154 13.3307 14.1218C13.1178 14.1282 12.9106 14.0529 12.7515 13.9113L10.1599 11.3196C10.1206 11.2809 10.0676 11.2591 10.0124 11.2591C9.95714 11.2591 9.90415 11.2809 9.86485 11.3196L7.27402 13.9113C7.11574 14.064 6.90438 14.1494 6.68444 14.1494C6.4645 14.1494 6.25314 14.064 6.09485 13.9113C6.01737 13.8339 5.95591 13.742 5.91397 13.6408C5.87203 13.5397 5.85045 13.4312 5.85045 13.3217C5.85045 13.2122 5.87203 13.1038 5.91397 13.0026C5.95591 12.9014 6.01737 12.8095 6.09485 12.7321L8.68652 10.1413C8.7059 10.122 8.72127 10.0991 8.73176 10.0739C8.74225 10.0486 8.74766 10.0216 8.74766 9.99423C8.74766 9.96689 8.74225 9.93983 8.73176 9.91459C8.72127 9.88934 8.7059 9.86642 8.68652 9.84714L6.09485 7.25548C5.95093 7.09721 5.87339 6.88966 5.87827 6.6758C5.88315 6.46194 5.97009 6.25814 6.12109 6.10661C6.27208 5.95508 6.47557 5.86742 6.68941 5.86178C6.90326 5.85614 7.11108 5.93295 7.26985 6.07631L9.86069 8.66798C9.88004 8.68738 9.90303 8.70277 9.92834 8.71327C9.95365 8.72378 9.98078 8.72918 10.0082 8.72918C10.0356 8.72918 10.0627 8.72378 10.088 8.71327C10.1133 8.70277 10.1363 8.68738 10.1557 8.66798L12.7474 6.07631C12.9037 5.92005 13.1158 5.83231 13.3368 5.83239C13.5579 5.83247 13.7698 5.92036 13.9261 6.07673C14.0824 6.23309 14.1701 6.44513 14.17 6.66619C14.1699 6.88725 14.0821 7.09922 13.9257 7.25548L11.334 9.84714C11.2951 9.8862 11.2732 9.93909 11.2732 9.99423C11.2732 10.0494 11.2951 10.1023 11.334 10.1413L13.9257 12.7321Z" fill="#212121"/>
</svg>
