<svg width="20" height="20" viewBox="0 0 20 20" fill="none" xmlns="http://www.w3.org/2000/svg">
<path d="M19.4873 18.0179L14.0465 12.5771C15.2341 11.0159 15.7844 9.06198 15.586 7.11053C15.3877 5.15907 14.4555 3.35581 12.978 2.06557C11.5006 0.775328 9.58821 0.0944424 7.62782 0.160664C5.66742 0.226886 3.80537 1.03527 2.41837 2.42227C1.03137 3.80927 0.22298 5.67133 0.156758 7.63173C0.0905361 9.59212 0.771421 11.5045 2.06166 12.9819C3.3519 14.4594 5.15516 15.3916 7.10662 15.5899C9.05808 15.7883 11.012 15.238 12.5732 14.0504L18.014 19.4912C18.211 19.6834 18.4754 19.791 18.7507 19.791C19.0259 19.791 19.2903 19.6834 19.4873 19.4912C19.6825 19.2958 19.7922 19.0308 19.7922 18.7546C19.7922 18.4783 19.6825 18.2134 19.4873 18.0179V18.0179ZM2.29234 7.91874C2.29234 6.80622 2.62224 5.71869 3.24032 4.79366C3.8584 3.86864 4.73691 3.14766 5.76474 2.72192C6.79258 2.29618 7.92358 2.18479 9.01472 2.40183C10.1059 2.61887 11.1081 3.1546 11.8948 3.94127C12.6815 4.72794 13.2172 5.73022 13.4343 6.82136C13.6513 7.9125 13.5399 9.0435 13.1142 10.0713C12.6884 11.0992 11.9674 11.9777 11.0424 12.5958C10.1174 13.2138 9.02986 13.5437 7.91734 13.5437C6.42604 13.542 4.99632 12.9488 3.94181 11.8943C2.8873 10.8398 2.2941 9.41005 2.29234 7.91874V7.91874Z" fill="#9E9E9E"/>
</svg>
